{
  "EanId": "000911299986158633",
  "ProductType": 1,
  "BalanceSupplier": "8714252005318",
  "BalanceSupplierResponsible": "8714252005318",
  "DossierId": "53633564",
  "ExternalReference": "35179",
  "InitiatedParty": 0,
  "MutationDate": "2022-01-04T00:00:00+01:00"
}