{
  "Header": {
    "HasException": null,
    "Message": null,
    "InternalErrorCode": null,
    "ErrorDetails": null,
    "StatusCode": 200,
    "ErrorCode": null
  },
  "Data": {
    "Jobs": [
      {
        "Name": "FutureProcessingCcuJob",
        "Group": "Energy_CommercialCharacteristic",
        "DataMap": {
          "JobName": "FutureProcessingCcuJob",
          "RoutingKey": "CommercialCharacteristic"
        }
      },
      {
        "Name": "ScheduledRetryProcessingCcuJob",
        "Group": "Energy_CommercialCharacteristic",
        "DataMap": {
          "JobName": "ScheduledRetryProcessingCcuJob",
          "RoutingKey": "CommercialCharacteristic"
        }
      },
      {
        "Name": "DailyStatusCheckJob",
        "Group": "Energy_Consumption",
        "DataMap": {
          "JobName": "DailyJob",
          "RoutingKey": "ConsDom"
        }
      },
      {
        "Name": "SendDisputeMeterReadingJob",
        "Group": "Energy_Consumption",
        "DataMap": {
          "JobName": "SendDisputeMeterReadingJob",
          "RoutingKey": "ConsDom"
        }
      },
      {
        "Name": "SendMeterReadingJob",
        "Group": "Energy_Consumption",
        "DataMap": {
          "JobName": "SendMeterReadingJob",
          "RoutingKey": "ConsDom"
        }
      },
      {
        "Name": "DownloadFilesJob",
        "Group": "Energy_EdsnGateway",
        "DataMap": {
          "JobName": "DownloadFiles",
          "RoutingKey": "EdsnGateway"
        }
      },
      {
        "Name": "GetAcceptedMeterReadings",
        "Group": "Energy_EdsnGateway",
        "DataMap": {
          "JobName": "GetAcceptedMeterReadings",
          "RoutingKey": "EdsnGateway"
        }
      },
      {
        "Name": "GetAcceptedMeterReadingsFake",
        "Group": "Energy_EdsnGateway",
        "DataMap": {
          "JobName": "GetAcceptedMeterReadingsFake",
          "RoutingKey": "EdsnGateway"
        }
      },
      {
        "Name": "GetCapacityTariffsFakeJob",
        "Group": "Energy_EdsnGateway",
        "DataMap": {
          "JobName": "GetCapacityTariffsFake",
          "RoutingKey": "EdsnGateway"
        }
      },
      {
        "Name": "GetCapacityTariffsJob",
        "Group": "Energy_EdsnGateway",
        "DataMap": {
          "JobName": "GetCapacityTariffs",
          "RoutingKey": "EdsnGateway"
        }
      },
      {
        "Name": "GetContractMoveOuts",
        "Group": "Energy_EdsnGateway",
        "DataMap": {
          "JobName": "GetContractMoveOuts",
          "RoutingKey": "EdsnGateway"
        }
      },
      {
        "Name": "GetContractMoveOutsFake",
        "Group": "Energy_EdsnGateway",
        "DataMap": {
          "JobName": "GetContractMoveOutsFake",
          "RoutingKey": "EdsnGateway"
        }
      },
      {
        "Name": "GetContractRegisteries",
        "Group": "Energy_EdsnGateway",
        "DataMap": {
          "JobName": "GetContractRegisteries",
          "RoutingKey": "EdsnGateway"
        }
      },
      {
        "Name": "GetContractRegisteriesFake",
        "Group": "Energy_EdsnGateway",
        "DataMap": {
          "JobName": "GetContractRegisteriesFake",
          "RoutingKey": "EdsnGateway"
        }
      },
      {
        "Name": "GetDisputeResults",
        "Group": "Energy_EdsnGateway",
        "DataMap": {
          "JobName": "GetDisputeResults",
          "RoutingKey": "EdsnGateway"
        }
      },
      {
        "Name": "GetDisputeResultsFake",
        "Group": "Energy_EdsnGateway",
        "DataMap": {
          "JobName": "GetDisputeResultsFake",
          "RoutingKey": "EdsnGateway"
        }
      },
      {
        "Name": "GetDisputes",
        "Group": "Energy_EdsnGateway",
        "DataMap": {
          "JobName": "GetDisputes",
          "RoutingKey": "EdsnGateway"
        }
      },
      {
        "Name": "GetDisputesFake",
        "Group": "Energy_EdsnGateway",
        "DataMap": {
          "JobName": "GetDisputesFake",
          "RoutingKey": "EdsnGateway"
        }
      },
      {
        "Name": "GetFileExchangeResult",
        "Group": "Energy_EdsnGateway",
        "DataMap": {
          "JobName": "GetFileExchangeResult",
          "RoutingKey": "EdsnGateway"
        }
      },
      {
        "Name": "GetFileExchangeResultFake",
        "Group": "Energy_EdsnGateway",
        "DataMap": {
          "JobName": "GetFileExchangeResultFake",
          "RoutingKey": "EdsnGateway"
        }
      },
      {
        "Name": "GetMasterDataUpdates",
        "Group": "Energy_EdsnGateway",
        "DataMap": {
          "JobName": "GetMasterDataUpdates",
          "RoutingKey": "EdsnGateway"
        }
      },
      {
        "Name": "GetMasterDataUpdatesFake",
        "Group": "Energy_EdsnGateway",
        "DataMap": {
          "JobName": "GetMasterDataUpdatesFake",
          "RoutingKey": "EdsnGateway"
        }
      },
      {
        "Name": "GetMeterReadingRejections",
        "Group": "Energy_EdsnGateway",
        "DataMap": {
          "JobName": "GetMeterReadingRejections",
          "RoutingKey": "EdsnGateway"
        }
      },
      {
        "Name": "GetMeterReadingRejectionsFake",
        "Group": "Energy_EdsnGateway",
        "DataMap": {
          "JobName": "GetMeterReadingRejectionsFake",
          "RoutingKey": "EdsnGateway"
        }
      },
      {
        "Name": "GetGains",
        "Group": "Energy_EdsnSwitch",
        "DataMap": {
          "JobName": "GetGains",
          "RoutingKey": "EdsnSwitch"
        }
      },
      {
        "Name": "GetGainsFake",
        "Group": "Energy_EdsnSwitch",
        "DataMap": {
          "JobName": "GetGainsFake",
          "RoutingKey": "EdsnSwitch"
        }
      },
      {
        "Name": "GetLosses",
        "Group": "Energy_EdsnSwitch",
        "DataMap": {
          "JobName": "GetLosses",
          "RoutingKey": "EdsnSwitch"
        }
      },
      {
        "Name": "GetLossesFake",
        "Group": "Energy_EdsnSwitch",
        "DataMap": {
          "JobName": "GetLossesFake",
          "RoutingKey": "EdsnSwitch"
        }
      },
      {
        "Name": "GetRejections",
        "Group": "Energy_EdsnSwitch",
        "DataMap": {
          "JobName": "GetRejections",
          "RoutingKey": "EdsnSwitch"
        }
      },
      {
        "Name": "GetRejectionsFake",
        "Group": "Energy_EdsnSwitch",
        "DataMap": {
          "JobName": "GetRejectionsFake",
          "RoutingKey": "EdsnSwitch"
        }
      },
      {
        "Name": "GetUpdates",
        "Group": "Energy_EdsnSwitch",
        "DataMap": {
          "JobName": "GetUpdates",
          "RoutingKey": "EdsnSwitch"
        }
      },
      {
        "Name": "ProcessFutureUpdates",
        "Group": "Energy_ICAR",
        "DataMap": {
          "JobName": "ProcessFutureUpdates",
          "RoutingKey": "ICAR"
        }
      },
      {
        "Name": "ReprocessMessageJob",
        "Group": "Energy_ICAR",
        "DataMap": {
          "JobName": "ReprocessMessageJob",
          "RoutingKey": "ICAR"
        }
      },
      {
        "Name": "ExecuteMasterDataBatchTask",
        "Group": "Energy_MasterData",
        "DataMap": {
          "JobName": "ExecuteMasterDataBatchTask",
          "RoutingKey": "MasterData"
        }
      },
      {
        "Name": "FutureProcessingMduJob",
        "Group": "Energy_MasterData",
        "DataMap": {
          "JobName": "FutureProcessingMduJob",
          "RoutingKey": "MasterData"
        }
      },
      {
        "Name": "ProcessMeterReadingSchedules",
        "Group": "Energy_MeterReadingSchedules",
        "DataMap": {
          "JobName": "ProcessMeterReadingSchedules",
          "RoutingKey": "MeterReadingSchedules"
        }
      },
      {
        "Name": "CancelVoucherReservationJob",
        "Group": "Energy_MMVoucher",
        "DataMap": {
          "JobName": "CancelVoucherReservationJob",
          "RoutingKey": "MMVoucher"
        }
      },
      {
        "Name": "RequestRestValueJob",
        "Group": "Energy_MMVoucher",
        "DataMap": {
          "JobName": "RequestRestValueJob",
          "RoutingKey": "MMVoucher"
        }
      },
      {
        "Name": "SftpListenerJob",
        "Group": "Energy_MMVoucher",
        "DataMap": {
          "JobName": "SftpListenerJob",
          "RoutingKey": "MMVoucher"
        }
      },
      {
        "Name": "DailyCommunicationHistoryJob",
        "Group": "Energy_P4Daily",
        "DataMap": {
          "JobName": "DailyCommunicationHistoryJob",
          "RoutingKey": "P4Daily"
        }
      },
      {
        "Name": "HistoricalDataJob",
        "Group": "Energy_P4Daily",
        "DataMap": {
          "JobName": "HistoricalDataJob",
          "RoutingKey": "P4Daily"
        }
      },
      {
        "Name": "RequestDailyReadingsJob",
        "Group": "Energy_P4Daily",
        "DataMap": {
          "JobName": "RequestDailyReadingsJob",
          "RoutingKey": "P4Daily"
        }
      },
      {
        "Name": "DailyPropositionCheckJob",
        "Group": "Energy_ProdMan",
        "DataMap": {
          "JobName": "DailyPropositionCheckJob",
          "RoutingKey": "ProdMan"
        }
      },
      {
        "Name": "DailyCheckJob",
        "Group": "Energy_Prospect",
        "DataMap": {
          "JobName": "DailyCheckJob",
          "RoutingKey": "Prospect"
        }
      },
      {
        "Name": "NotifyCustomerInformationAboutExtractionJob",
        "Group": "Energy_RegisterSynchronization",
        "DataMap": {
          "JobName": "NotifyCustomerInformationAboutExtractionJob",
          "RoutingKey": "RegisterSynchronization"
        }
      },
      {
        "Name": "NotifyIcarAboutExtractionJob",
        "Group": "Energy_RegisterSynchronization",
        "DataMap": {
          "JobName": "NotifyIcarAboutExtractionJob",
          "RoutingKey": "RegisterSynchronization"
        }
      },
      {
        "Name": "TryToCreateMismatchReportJob",
        "Group": "Energy_RegisterSynchronization",
        "DataMap": {
          "JobName": "TryToCreateMismatchReportJob",
          "RoutingKey": "RegisterSynchronization"
        }
      },
      {
        "Name": "AddRenewableContractsToCampaign",
        "Group": "Energy_RenewalCampaign",
        "DataMap": {
          "JobName": "AddRenewableContractsToCampaign",
          "RoutingKey": "RenewalCampaign"
        }
      },
      {
        "Name": "CheckEventsOfferPropositions",
        "Group": "Energy_RenewalCampaign",
        "DataMap": {
          "JobName": "CheckEventsOfferPropositionsTask",
          "RoutingKey": "RenewalCampaign"
        }
      },
      {
        "Name": "CreateBnaCampaigns",
        "Group": "Energy_RenewalCampaign",
        "DataMap": {
          "JobName": "CreateBnaCampaigns",
          "RoutingKey": "RenewalCampaign"
        }
      },
      {
        "Name": "ExecutedReactiveCampaignEvents",
        "Group": "Energy_RenewalCampaign",
        "DataMap": {
          "JobName": "ExecutedReactiveCampaignEvents",
          "RoutingKey": "RenewalCampaign"
        }
      },
      {
        "Name": "ExecuteProactiveAndBnaCampaignsEvents",
        "Group": "Energy_RenewalCampaign",
        "DataMap": {
          "JobName": "ExecuteProactiveAndBnaCampaignsEvents",
          "RoutingKey": "RenewalCampaign"
        }
      },
      {
        "Name": "ExecuteSearchOutdatedContracts",
        "Group": "Energy_RenewalCampaign",
        "DataMap": {
          "JobName": "ExecuteSearchOutdatedContracts",
          "RoutingKey": "RenewalCampaign"
        }
      },
      {
        "Name": "ExecuteStartCampaignsTask",
        "Group": "Energy_RenewalCampaign",
        "DataMap": {
          "JobName": "ExecuteStartCampaignsTask",
          "RoutingKey": "RenewalCampaign"
        }
      },
      {
        "Name": "ExecuteStopCampaignByEndDate",
        "Group": "Energy_RenewalCampaign",
        "DataMap": {
          "JobName": "ExecuteStopCampaignByEndDate",
          "RoutingKey": "RenewalCampaign"
        }
      },
      {
        "Name": "ExecuteUpdateUsageCheck",
        "Group": "Energy_RenewalCampaign",
        "DataMap": {
          "JobName": "ExecuteUpdateUsageCheck",
          "RoutingKey": "RenewalCampaign"
        }
      },
      {
        "Name": "ExpiredCustomOffer",
        "Group": "Energy_RenewalCampaign",
        "DataMap": {
          "JobName": "ExpiredCustomOffer",
          "RoutingKey": "RenewalCampaign"
        }
      },
      {
        "Name": "CheckResellerStatusInCireRegistryJob",
        "Group": "Energy_Reseller",
        "DataMap": {
          "JobName": "CheckResellerStatusInCireRegistryJob",
          "RoutingKey": "Reseller"
        }
      },
      {
        "Name": "Switches EndOfSupply",
        "Group": "Energy_Switches",
        "DataMap": {
          "JobName": "JobEndOfSupply",
          "RoutingKey": "Switches"
        }
      },
      {
        "Name": "Switches MoveIn",
        "Group": "Energy_Switches",
        "DataMap": {
          "JobName": "JobMoveIn",
          "RoutingKey": "Switches"
        }
      },
      {
        "Name": "Switches MoveOut",
        "Group": "Energy_Switches",
        "DataMap": {
          "JobName": "JobMoveOut",
          "RoutingKey": "Switches"
        }
      },
      {
        "Name": "Switches SwitchIn",
        "Group": "Energy_Switches",
        "DataMap": {
          "JobName": "JobSwitchIn",
          "RoutingKey": "Switches"
        }
      }
    ]
  },
  "Content": null
}