{
  "EanId": "000911236899565787",
  "ProductType": 1,
  "BalanceSupplier": "8714252005318",
  "BalanceSupplierResponsible": "8714252005318",
  "DossierId": "76927574",
  "ExternalReference": "56911",
  "InitiatedParty": 0,
  "MutationDate": "2022-01-04T00:00:00+01:00"
}