{
  "Header": {
    "AppUId": "testhost"
  },
  "MeteringReadings": [
    {
      "Ean": "000911138686196833",
      "ProductType": 1,
      "ValidFromDate": null,
      "ValidToDate": null,
      "Mutation": {
        "DossierId": "99567264",
        "ExternalReference": "FakeEdsn_7730a",
        "Consumer": "8714252018141",
        "Initiator": "339529540",
        "MutationReason": 24
      },
      "EnergyMeter": {
        "MeterNumber": "TEST459325",
        "NumberOfRegisters": 4,
        "Registers": [
          {
            "NumberOfDigits": 5,
            "MeasureUnit": 2,
            "FlowDirection": 2,
            "TariffType": 1,
            "CalorificCorrectedVolume": null,
            "Volume": null,
            "BeginReading": null,
            "EndReading": {
              "Reading": 2004,
              "ReadingDate": "2021-04-10T09:20:35.4380824+02:00",
              "ReadingSource": 8
            }
          },
          {
            "NumberOfDigits": 5,
            "MeasureUnit": 2,
            "FlowDirection": 2,
            "TariffType": 0,
            "CalorificCorrectedVolume": null,
            "Volume": null,
            "BeginReading": null,
            "EndReading": {
              "Reading": 2002,
              "ReadingDate": "2021-04-10T09:20:35.4380824+02:00",
              "ReadingSource": 8
            }
          },
          {
            "NumberOfDigits": 5,
            "MeasureUnit": 2,
            "FlowDirection": 3,
            "TariffType": 1,
            "CalorificCorrectedVolume": null,
            "Volume": null,
            "BeginReading": null,
            "EndReading": {
              "Reading": 2004,
              "ReadingDate": "2021-04-10T09:20:35.4380824+02:00",
              "ReadingSource": 8
            }
          },
          {
            "NumberOfDigits": 5,
            "MeasureUnit": 2,
            "FlowDirection": 3,
            "TariffType": 0,
            "CalorificCorrectedVolume": null,
            "Volume": null,
            "BeginReading": null,
            "EndReading": {
              "Reading": 2000,
              "ReadingDate": "2021-04-10T09:20:35.4380824+02:00",
              "ReadingSource": 8
            }
          }
        ]
      },
      "LastComment": null,
      "HeaderMessageId": "00000000-0000-0000-0000-000000000000",
      "HeaderCreationTS": "2021-04-10T09:20:35.438"
    }
  ]
}