{
  "Header": {
    "AppUId": "testhost"
  },
  "MeteringReadings": [
    {
      "Ean": "000911236899565787",
      "ProductType": 1,
      "ValidFromDate": null,
      "ValidToDate": null,
      "Mutation": {
        "DossierId": "76927574",
        "ExternalReference": "FakeEdsn_687b9",
        "Consumer": "8714252018141",
        "Initiator": "732023770",
        "MutationReason": 24
      },
      "EnergyMeter": {
        "MeterNumber": "TEST631931",
        "NumberOfRegisters": 4,
        "Registers": [
          {
            "NumberOfDigits": 5,
            "MeasureUnit": 2,
            "FlowDirection": 2,
            "TariffType": 1,
            "CalorificCorrectedVolume": null,
            "Volume": null,
            "BeginReading": null,
            "EndReading": {
              "Reading": 2001,
              "ReadingDate": "2021-04-10T09:20:33.9994425+02:00",
              "ReadingSource": 8
            }
          },
          {
            "NumberOfDigits": 5,
            "MeasureUnit": 2,
            "FlowDirection": 2,
            "TariffType": 0,
            "CalorificCorrectedVolume": null,
            "Volume": null,
            "BeginReading": null,
            "EndReading": {
              "Reading": 2000,
              "ReadingDate": "2021-04-10T09:20:33.9994425+02:00",
              "ReadingSource": 8
            }
          },
          {
            "NumberOfDigits": 5,
            "MeasureUnit": 2,
            "FlowDirection": 3,
            "TariffType": 1,
            "CalorificCorrectedVolume": null,
            "Volume": null,
            "BeginReading": null,
            "EndReading": {
              "Reading": 2002,
              "ReadingDate": "2021-04-10T09:20:33.9994425+02:00",
              "ReadingSource": 8
            }
          },
          {
            "NumberOfDigits": 5,
            "MeasureUnit": 2,
            "FlowDirection": 3,
            "TariffType": 0,
            "CalorificCorrectedVolume": null,
            "Volume": null,
            "BeginReading": null,
            "EndReading": {
              "Reading": 2002,
              "ReadingDate": "2021-04-10T09:20:33.9994425+02:00",
              "ReadingSource": 8
            }
          }
        ]
      },
      "LastComment": null,
      "HeaderMessageId": "00000000-0000-0000-0000-000000000000",
      "HeaderCreationTS": "2021-04-10T09:20:33.999"
    }
  ]
}