{
  "Data": {
    "Rejection": null
  },
  "Header": {
    "Message": null,
    "StatusCode": 200,
    "InternalErrorCode": null,
    "AdditionalInfo": null,
    "ErrorDetails": null
  },
  "ResponseText": "{\"rejection\":null}"
}