{
  "Header": {
    "AppUId": "testhost"
  },
  "MeteringReadings": [
    {
      "Ean": "000911861738281455",
      "ProductType": 1,
      "ValidFromDate": null,
      "ValidToDate": null,
      "Mutation": {
        "DossierId": "39532798",
        "ExternalReference": "FakeEdsn_3f095",
        "Consumer": "8714252018141",
        "Initiator": "439226101",
        "MutationReason": 24
      },
      "EnergyMeter": {
        "MeterNumber": "TEST963467",
        "NumberOfRegisters": 2,
        "Registers": [
          {
            "NumberOfDigits": 5,
            "MeasureUnit": 2,
            "FlowDirection": 2,
            "TariffType": 1,
            "CalorificCorrectedVolume": null,
            "Volume": null,
            "BeginReading": null,
            "EndReading": {
              "Reading": 0,
              "ReadingDate": "2021-04-10T09:20:34.7450025+02:00",
              "ReadingSource": 8
            }
          },
          {
            "NumberOfDigits": 5,
            "MeasureUnit": 2,
            "FlowDirection": 2,
            "TariffType": 0,
            "CalorificCorrectedVolume": null,
            "Volume": null,
            "BeginReading": null,
            "EndReading": {
              "Reading": 4,
              "ReadingDate": "2021-04-10T09:20:34.7450025+02:00",
              "ReadingSource": 8
            }
          }
        ]
      },
      "LastComment": null,
      "HeaderMessageId": "00000000-0000-0000-0000-000000000000",
      "HeaderCreationTS": "2021-04-10T09:20:34.745"
    }
  ]
}